{
    "app-id": "app.drey.Damask.Devel",
    "runtime": "org.gnome.Platform",
    "runtime-version": "master",
    "sdk": "org.gnome.Sdk",
    "command": "damask",
    "finish-args": [
        "--share=network",
        "--share=ipc",
        "--socket=fallback-x11",
        "--device=dri",
        "--socket=wayland"
    ],
    "cleanup": [
        "/include",
        "/lib/pkgconfig",
        "/man",
        "/share/doc",
        "/share/gtk-doc",
        "/share/man",
        "/share/pkgconfig",
        "/share/vala",
        "*.la",
        "*.a"
    ],
    "modules": [
        {
            "name": "blueprint-compiler",
            "buildsystem": "meson",
            "cleanup": [
                "*"
            ],
            "sources": [
                {
                    "type": "git",
                    "url": "https://gitlab.gnome.org/jwestman/blueprint-compiler",
                    "tag": "v0.10.0"
                }
            ]
        },
        {
            "name": "libportal",
            "buildsystem": "meson",
            "config-opts": [
                "-Dbackend-gtk4=enabled",
                "-Dbackend-gtk3=disabled",
                "-Ddocs=false"
            ],
            "sources": [
                {
                    "type": "git",
                    "url": "https://github.com/flatpak/libportal",
                    "tag": "0.7.1"
                }
            ]
        },
        {
            "name": "damask",
            "builddir": true,
            "buildsystem": "meson",
            "config-opts": [
                "-Ddevelopment=true"
            ],
            "sources": [
                {
                    "type": "dir",
                    "path": "."
                }
            ]
        }
    ],
    "build-options": {
        "env": {}
    }
}
